/*
WARNING: Do NOT edit the input and output ports in this file in a text
editor if you plan to continue editing the block that represents it in
the Block Editor! File corruption is VERY likely to occur.
*/
/*
Copyright (C) 1991-2013 Altera Corporation
Your use of Altera Corporation's design tools, logic functions 
and other software and tools, and its AMPP partner logic 
functions, and any output files from any of the foregoing 
(including device programming or simulation files), and any 
associated documentation or information are expressly subject 
to the terms and conditions of the Altera Program License 
Subscription Agreement, Altera MegaCore Function License 
Agreement, or other applicable license agreement, including, 
without limitation, that your use is for the sole purpose of 
programming logic devices manufactured by Altera and sold by 
Altera or its authorized distributors.  Please refer to the 
applicable agreement for further details.
*/
(header "graphic" (version "1.4"))
(pin
	(input)
	(rect 8 32 184 48)
	(text "INPUT" (rect 133 0 161 10)(font "Arial" (font_size 6)))
	(text "ChaveDoSinal" (rect 5 0 76 12)(font "Arial" ))
	(pt 176 8)
	(drawing
		(line (pt 92 12)(pt 117 12))
		(line (pt 92 4)(pt 117 4))
		(line (pt 121 8)(pt 176 8))
		(line (pt 92 12)(pt 92 4))
		(line (pt 117 4)(pt 121 8))
		(line (pt 117 12)(pt 121 8))
	)
	(text "VCC" (rect 136 7 156 17)(font "Arial" (font_size 6)))
)
(pin
	(input)
	(rect 0 160 240 176)
	(text "INPUT" (rect 197 0 225 10)(font "Arial" (font_size 6)))
	(text "EntradaDasChavesEm8bits" (rect 5 0 142 12)(font "Arial" ))
	(pt 240 8)
	(drawing
		(line (pt 156 12)(pt 181 12))
		(line (pt 156 4)(pt 181 4))
		(line (pt 185 8)(pt 240 8))
		(line (pt 156 12)(pt 156 4))
		(line (pt 181 4)(pt 185 8))
		(line (pt 181 12)(pt 185 8))
	)
	(text "VCC" (rect 200 7 220 17)(font "Arial" (font_size 6)))
)
(pin
	(output)
	(rect 472 48 648 64)
	(text "OUTPUT" (rect 1 0 39 10)(font "Arial" (font_size 6)))
	(text "pin_name1" (rect 90 0 143 12)(font "Arial" ))
	(pt 0 8)
	(drawing
		(line (pt 0 8)(pt 52 8))
		(line (pt 52 4)(pt 78 4))
		(line (pt 52 12)(pt 78 12))
		(line (pt 52 12)(pt 52 4))
		(line (pt 78 4)(pt 82 8))
		(line (pt 82 8)(pt 78 12))
		(line (pt 78 12)(pt 82 8))
	)
)
(pin
	(output)
	(rect 472 64 648 80)
	(text "OUTPUT" (rect 1 0 39 10)(font "Arial" (font_size 6)))
	(text "pin_name2" (rect 90 0 143 12)(font "Arial" ))
	(pt 0 8)
	(drawing
		(line (pt 0 8)(pt 52 8))
		(line (pt 52 4)(pt 78 4))
		(line (pt 52 12)(pt 78 12))
		(line (pt 52 12)(pt 52 4))
		(line (pt 78 4)(pt 82 8))
		(line (pt 82 8)(pt 78 12))
		(line (pt 78 12)(pt 82 8))
	)
)
(pin
	(output)
	(rect 472 80 648 96)
	(text "OUTPUT" (rect 1 0 39 10)(font "Arial" (font_size 6)))
	(text "pin_name3" (rect 90 0 143 12)(font "Arial" ))
	(pt 0 8)
	(drawing
		(line (pt 0 8)(pt 52 8))
		(line (pt 52 4)(pt 78 4))
		(line (pt 52 12)(pt 78 12))
		(line (pt 52 12)(pt 52 4))
		(line (pt 78 4)(pt 82 8))
		(line (pt 82 8)(pt 78 12))
		(line (pt 78 12)(pt 82 8))
	)
)
(pin
	(output)
	(rect 472 96 648 112)
	(text "OUTPUT" (rect 1 0 39 10)(font "Arial" (font_size 6)))
	(text "pin_name5" (rect 90 0 143 12)(font "Arial" ))
	(pt 0 8)
	(drawing
		(line (pt 0 8)(pt 52 8))
		(line (pt 52 4)(pt 78 4))
		(line (pt 52 12)(pt 78 12))
		(line (pt 52 12)(pt 52 4))
		(line (pt 78 4)(pt 82 8))
		(line (pt 82 8)(pt 78 12))
		(line (pt 78 12)(pt 82 8))
	)
)
(pin
	(output)
	(rect 472 112 648 128)
	(text "OUTPUT" (rect 1 0 39 10)(font "Arial" (font_size 6)))
	(text "pin_name6" (rect 90 0 143 12)(font "Arial" ))
	(pt 0 8)
	(drawing
		(line (pt 0 8)(pt 52 8))
		(line (pt 52 4)(pt 78 4))
		(line (pt 52 12)(pt 78 12))
		(line (pt 52 12)(pt 52 4))
		(line (pt 78 4)(pt 82 8))
		(line (pt 82 8)(pt 78 12))
		(line (pt 78 12)(pt 82 8))
	)
)
(pin
	(output)
	(rect 472 128 648 144)
	(text "OUTPUT" (rect 1 0 39 10)(font "Arial" (font_size 6)))
	(text "pin_name7" (rect 90 0 143 12)(font "Arial" ))
	(pt 0 8)
	(drawing
		(line (pt 0 8)(pt 52 8))
		(line (pt 52 4)(pt 78 4))
		(line (pt 52 12)(pt 78 12))
		(line (pt 52 12)(pt 52 4))
		(line (pt 78 4)(pt 82 8))
		(line (pt 82 8)(pt 78 12))
		(line (pt 78 12)(pt 82 8))
	)
)
(pin
	(output)
	(rect 472 144 648 160)
	(text "OUTPUT" (rect 1 0 39 10)(font "Arial" (font_size 6)))
	(text "pin_name8" (rect 90 0 143 12)(font "Arial" ))
	(pt 0 8)
	(drawing
		(line (pt 0 8)(pt 52 8))
		(line (pt 52 4)(pt 78 4))
		(line (pt 52 12)(pt 78 12))
		(line (pt 52 12)(pt 52 4))
		(line (pt 78 4)(pt 82 8))
		(line (pt 82 8)(pt 78 12))
		(line (pt 78 12)(pt 82 8))
	)
)
(pin
	(output)
	(rect 472 160 648 176)
	(text "OUTPUT" (rect 1 0 39 10)(font "Arial" (font_size 6)))
	(text "pin_name9" (rect 90 0 143 12)(font "Arial" ))
	(pt 0 8)
	(drawing
		(line (pt 0 8)(pt 52 8))
		(line (pt 52 4)(pt 78 4))
		(line (pt 52 12)(pt 78 12))
		(line (pt 52 12)(pt 52 4))
		(line (pt 78 4)(pt 82 8))
		(line (pt 82 8)(pt 78 12))
		(line (pt 78 12)(pt 82 8))
	)
)
(pin
	(output)
	(rect 472 176 648 192)
	(text "OUTPUT" (rect 1 0 39 10)(font "Arial" (font_size 6)))
	(text "pin_name10" (rect 90 0 149 12)(font "Arial" ))
	(pt 0 8)
	(drawing
		(line (pt 0 8)(pt 52 8))
		(line (pt 52 4)(pt 78 4))
		(line (pt 52 12)(pt 78 12))
		(line (pt 52 12)(pt 52 4))
		(line (pt 78 4)(pt 82 8))
		(line (pt 82 8)(pt 78 12))
		(line (pt 78 12)(pt 82 8))
	)
)
(pin
	(output)
	(rect 472 192 648 208)
	(text "OUTPUT" (rect 1 0 39 10)(font "Arial" (font_size 6)))
	(text "pin_name11" (rect 90 0 149 12)(font "Arial" ))
	(pt 0 8)
	(drawing
		(line (pt 0 8)(pt 52 8))
		(line (pt 52 4)(pt 78 4))
		(line (pt 52 12)(pt 78 12))
		(line (pt 52 12)(pt 52 4))
		(line (pt 78 4)(pt 82 8))
		(line (pt 82 8)(pt 78 12))
		(line (pt 78 12)(pt 82 8))
	)
)
(pin
	(output)
	(rect 472 208 648 224)
	(text "OUTPUT" (rect 1 0 39 10)(font "Arial" (font_size 6)))
	(text "pin_name12" (rect 90 0 149 12)(font "Arial" ))
	(pt 0 8)
	(drawing
		(line (pt 0 8)(pt 52 8))
		(line (pt 52 4)(pt 78 4))
		(line (pt 52 12)(pt 78 12))
		(line (pt 52 12)(pt 52 4))
		(line (pt 78 4)(pt 82 8))
		(line (pt 82 8)(pt 78 12))
		(line (pt 78 12)(pt 82 8))
	)
)
(pin
	(output)
	(rect 472 224 648 240)
	(text "OUTPUT" (rect 1 0 39 10)(font "Arial" (font_size 6)))
	(text "pin_name13" (rect 90 0 149 12)(font "Arial" ))
	(pt 0 8)
	(drawing
		(line (pt 0 8)(pt 52 8))
		(line (pt 52 4)(pt 78 4))
		(line (pt 52 12)(pt 78 12))
		(line (pt 52 12)(pt 52 4))
		(line (pt 78 4)(pt 82 8))
		(line (pt 82 8)(pt 78 12))
		(line (pt 78 12)(pt 82 8))
	)
)
(pin
	(output)
	(rect 472 240 648 256)
	(text "OUTPUT" (rect 1 0 39 10)(font "Arial" (font_size 6)))
	(text "pin_name14" (rect 90 0 149 12)(font "Arial" ))
	(pt 0 8)
	(drawing
		(line (pt 0 8)(pt 52 8))
		(line (pt 52 4)(pt 78 4))
		(line (pt 52 12)(pt 78 12))
		(line (pt 52 12)(pt 52 4))
		(line (pt 78 4)(pt 82 8))
		(line (pt 82 8)(pt 78 12))
		(line (pt 78 12)(pt 82 8))
	)
)
(pin
	(output)
	(rect 472 256 648 272)
	(text "OUTPUT" (rect 1 0 39 10)(font "Arial" (font_size 6)))
	(text "pin_name15" (rect 90 0 149 12)(font "Arial" ))
	(pt 0 8)
	(drawing
		(line (pt 0 8)(pt 52 8))
		(line (pt 52 4)(pt 78 4))
		(line (pt 52 12)(pt 78 12))
		(line (pt 52 12)(pt 52 4))
		(line (pt 78 4)(pt 82 8))
		(line (pt 82 8)(pt 78 12))
		(line (pt 78 12)(pt 82 8))
	)
)
(pin
	(output)
	(rect 472 272 648 288)
	(text "OUTPUT" (rect 1 0 39 10)(font "Arial" (font_size 6)))
	(text "pin_name18" (rect 90 0 149 12)(font "Arial" ))
	(pt 0 8)
	(drawing
		(line (pt 0 8)(pt 52 8))
		(line (pt 52 4)(pt 78 4))
		(line (pt 52 12)(pt 78 12))
		(line (pt 52 12)(pt 52 4))
		(line (pt 78 4)(pt 82 8))
		(line (pt 82 8)(pt 78 12))
		(line (pt 78 12)(pt 82 8))
	)
)
(pin
	(output)
	(rect 472 288 648 304)
	(text "OUTPUT" (rect 1 0 39 10)(font "Arial" (font_size 6)))
	(text "pin_name19" (rect 90 0 149 12)(font "Arial" ))
	(pt 0 8)
	(drawing
		(line (pt 0 8)(pt 52 8))
		(line (pt 52 4)(pt 78 4))
		(line (pt 52 12)(pt 78 12))
		(line (pt 52 12)(pt 52 4))
		(line (pt 78 4)(pt 82 8))
		(line (pt 82 8)(pt 78 12))
		(line (pt 78 12)(pt 82 8))
	)
)
(pin
	(output)
	(rect 472 304 648 320)
	(text "OUTPUT" (rect 1 0 39 10)(font "Arial" (font_size 6)))
	(text "pin_name20" (rect 90 0 149 12)(font "Arial" ))
	(pt 0 8)
	(drawing
		(line (pt 0 8)(pt 52 8))
		(line (pt 52 4)(pt 78 4))
		(line (pt 52 12)(pt 78 12))
		(line (pt 52 12)(pt 52 4))
		(line (pt 78 4)(pt 82 8))
		(line (pt 82 8)(pt 78 12))
		(line (pt 78 12)(pt 82 8))
	)
)
(pin
	(output)
	(rect 472 320 648 336)
	(text "OUTPUT" (rect 1 0 39 10)(font "Arial" (font_size 6)))
	(text "pin_name21" (rect 90 0 149 12)(font "Arial" ))
	(pt 0 8)
	(drawing
		(line (pt 0 8)(pt 52 8))
		(line (pt 52 4)(pt 78 4))
		(line (pt 52 12)(pt 78 12))
		(line (pt 52 12)(pt 52 4))
		(line (pt 78 4)(pt 82 8))
		(line (pt 82 8)(pt 78 12))
		(line (pt 78 12)(pt 82 8))
	)
)
(pin
	(output)
	(rect 472 336 648 352)
	(text "OUTPUT" (rect 1 0 39 10)(font "Arial" (font_size 6)))
	(text "pin_name22" (rect 90 0 149 12)(font "Arial" ))
	(pt 0 8)
	(drawing
		(line (pt 0 8)(pt 52 8))
		(line (pt 52 4)(pt 78 4))
		(line (pt 52 12)(pt 78 12))
		(line (pt 52 12)(pt 52 4))
		(line (pt 78 4)(pt 82 8))
		(line (pt 82 8)(pt 78 12))
		(line (pt 78 12)(pt 82 8))
	)
)
(pin
	(output)
	(rect 472 352 648 368)
	(text "OUTPUT" (rect 1 0 39 10)(font "Arial" (font_size 6)))
	(text "pin_name24" (rect 90 0 149 12)(font "Arial" ))
	(pt 0 8)
	(drawing
		(line (pt 0 8)(pt 52 8))
		(line (pt 52 4)(pt 78 4))
		(line (pt 52 12)(pt 78 12))
		(line (pt 52 12)(pt 52 4))
		(line (pt 78 4)(pt 82 8))
		(line (pt 82 8)(pt 78 12))
		(line (pt 78 12)(pt 82 8))
	)
)
(pin
	(output)
	(rect 472 368 648 384)
	(text "OUTPUT" (rect 1 0 39 10)(font "Arial" (font_size 6)))
	(text "pin_name25" (rect 90 0 149 12)(font "Arial" ))
	(pt 0 8)
	(drawing
		(line (pt 0 8)(pt 52 8))
		(line (pt 52 4)(pt 78 4))
		(line (pt 52 12)(pt 78 12))
		(line (pt 52 12)(pt 52 4))
		(line (pt 78 4)(pt 82 8))
		(line (pt 82 8)(pt 78 12))
		(line (pt 78 12)(pt 82 8))
	)
)
(pin
	(output)
	(rect 472 384 648 400)
	(text "OUTPUT" (rect 1 0 39 10)(font "Arial" (font_size 6)))
	(text "pin_name26" (rect 90 0 149 12)(font "Arial" ))
	(pt 0 8)
	(drawing
		(line (pt 0 8)(pt 52 8))
		(line (pt 52 4)(pt 78 4))
		(line (pt 52 12)(pt 78 12))
		(line (pt 52 12)(pt 52 4))
		(line (pt 78 4)(pt 82 8))
		(line (pt 82 8)(pt 78 12))
		(line (pt 78 12)(pt 82 8))
	)
)
(pin
	(output)
	(rect 472 400 648 416)
	(text "OUTPUT" (rect 1 0 39 10)(font "Arial" (font_size 6)))
	(text "pin_name27" (rect 90 0 149 12)(font "Arial" ))
	(pt 0 8)
	(drawing
		(line (pt 0 8)(pt 52 8))
		(line (pt 52 4)(pt 78 4))
		(line (pt 52 12)(pt 78 12))
		(line (pt 52 12)(pt 52 4))
		(line (pt 78 4)(pt 82 8))
		(line (pt 82 8)(pt 78 12))
		(line (pt 78 12)(pt 82 8))
	)
)
(pin
	(output)
	(rect 472 416 648 432)
	(text "OUTPUT" (rect 1 0 39 10)(font "Arial" (font_size 6)))
	(text "pin_name28" (rect 90 0 149 12)(font "Arial" ))
	(pt 0 8)
	(drawing
		(line (pt 0 8)(pt 52 8))
		(line (pt 52 4)(pt 78 4))
		(line (pt 52 12)(pt 78 12))
		(line (pt 52 12)(pt 52 4))
		(line (pt 78 4)(pt 82 8))
		(line (pt 82 8)(pt 78 12))
		(line (pt 78 12)(pt 82 8))
	)
)
(pin
	(output)
	(rect 472 432 648 448)
	(text "OUTPUT" (rect 1 0 39 10)(font "Arial" (font_size 6)))
	(text "pin_name29" (rect 90 0 149 12)(font "Arial" ))
	(pt 0 8)
	(drawing
		(line (pt 0 8)(pt 52 8))
		(line (pt 52 4)(pt 78 4))
		(line (pt 52 12)(pt 78 12))
		(line (pt 52 12)(pt 52 4))
		(line (pt 78 4)(pt 82 8))
		(line (pt 82 8)(pt 78 12))
		(line (pt 78 12)(pt 82 8))
	)
)
(pin
	(output)
	(rect 472 448 648 464)
	(text "OUTPUT" (rect 1 0 39 10)(font "Arial" (font_size 6)))
	(text "pin_name30" (rect 90 0 149 12)(font "Arial" ))
	(pt 0 8)
	(drawing
		(line (pt 0 8)(pt 52 8))
		(line (pt 52 4)(pt 78 4))
		(line (pt 52 12)(pt 78 12))
		(line (pt 52 12)(pt 52 4))
		(line (pt 78 4)(pt 82 8))
		(line (pt 82 8)(pt 78 12))
		(line (pt 78 12)(pt 82 8))
	)
)
(pin
	(output)
	(rect 472 464 648 480)
	(text "OUTPUT" (rect 1 0 39 10)(font "Arial" (font_size 6)))
	(text "pin_name31" (rect 90 0 149 12)(font "Arial" ))
	(pt 0 8)
	(drawing
		(line (pt 0 8)(pt 52 8))
		(line (pt 52 4)(pt 78 4))
		(line (pt 52 12)(pt 78 12))
		(line (pt 52 12)(pt 52 4))
		(line (pt 78 4)(pt 82 8))
		(line (pt 82 8)(pt 78 12))
		(line (pt 78 12)(pt 82 8))
	)
)
(pin
	(output)
	(rect 472 480 648 496)
	(text "OUTPUT" (rect 1 0 39 10)(font "Arial" (font_size 6)))
	(text "pin_name32" (rect 90 0 149 12)(font "Arial" ))
	(pt 0 8)
	(drawing
		(line (pt 0 8)(pt 52 8))
		(line (pt 52 4)(pt 78 4))
		(line (pt 52 12)(pt 78 12))
		(line (pt 52 12)(pt 52 4))
		(line (pt 78 4)(pt 82 8))
		(line (pt 82 8)(pt 78 12))
		(line (pt 78 12)(pt 82 8))
	)
)
(pin
	(output)
	(rect 472 496 648 512)
	(text "OUTPUT" (rect 1 0 39 10)(font "Arial" (font_size 6)))
	(text "pin_name33" (rect 90 0 149 12)(font "Arial" ))
	(pt 0 8)
	(drawing
		(line (pt 0 8)(pt 52 8))
		(line (pt 52 4)(pt 78 4))
		(line (pt 52 12)(pt 78 12))
		(line (pt 52 12)(pt 52 4))
		(line (pt 78 4)(pt 82 8))
		(line (pt 82 8)(pt 78 12))
		(line (pt 78 12)(pt 82 8))
	)
)
(pin
	(output)
	(rect 472 512 648 528)
	(text "OUTPUT" (rect 1 0 39 10)(font "Arial" (font_size 6)))
	(text "pin_name34" (rect 90 0 149 12)(font "Arial" ))
	(pt 0 8)
	(drawing
		(line (pt 0 8)(pt 52 8))
		(line (pt 52 4)(pt 78 4))
		(line (pt 52 12)(pt 78 12))
		(line (pt 52 12)(pt 52 4))
		(line (pt 78 4)(pt 82 8))
		(line (pt 82 8)(pt 78 12))
		(line (pt 78 12)(pt 82 8))
	)
)
(symbol
	(rect 304 24 472 552)
	(text "sqrt_calc" (rect 5 0 49 12)(font "Arial" ))
	(text "inst" (rect 8 512 25 524)(font "Arial" ))
	(port
		(pt 0 32)
		(input)
		(text "chave_neg" (rect 0 0 54 12)(font "Arial" ))
		(text "chave_neg" (rect 21 27 75 39)(font "Arial" ))
		(line (pt 0 32)(pt 16 32))
	)
	(port
		(pt 0 48)
		(input)
		(text "dado[7..0]" (rect 0 0 49 12)(font "Arial" ))
		(text "dado[7..0]" (rect 21 43 70 55)(font "Arial" ))
		(line (pt 0 48)(pt 16 48)(line_width 3))
	)
	(port
		(pt 168 32)
		(output)
		(text "A" (rect 0 0 8 12)(font "Arial" ))
		(text "A" (rect 141 27 149 39)(font "Arial" ))
		(line (pt 168 32)(pt 152 32))
	)
	(port
		(pt 168 48)
		(output)
		(text "B" (rect 0 0 7 12)(font "Arial" ))
		(text "B" (rect 142 43 149 55)(font "Arial" ))
		(line (pt 168 48)(pt 152 48))
	)
	(port
		(pt 168 64)
		(output)
		(text "C" (rect 0 0 8 12)(font "Arial" ))
		(text "C" (rect 141 59 149 71)(font "Arial" ))
		(line (pt 168 64)(pt 152 64))
	)
	(port
		(pt 168 80)
		(output)
		(text "D" (rect 0 0 8 12)(font "Arial" ))
		(text "D" (rect 141 75 149 87)(font "Arial" ))
		(line (pt 168 80)(pt 152 80))
	)
	(port
		(pt 168 96)
		(output)
		(text "E" (rect 0 0 7 12)(font "Arial" ))
		(text "E" (rect 142 91 149 103)(font "Arial" ))
		(line (pt 168 96)(pt 152 96))
	)
	(port
		(pt 168 112)
		(output)
		(text "F" (rect 0 0 7 12)(font "Arial" ))
		(text "F" (rect 142 107 149 119)(font "Arial" ))
		(line (pt 168 112)(pt 152 112))
	)
	(port
		(pt 168 128)
		(output)
		(text "G" (rect 0 0 8 12)(font "Arial" ))
		(text "G" (rect 141 123 149 135)(font "Arial" ))
		(line (pt 168 128)(pt 152 128))
	)
	(port
		(pt 168 144)
		(output)
		(text "A22" (rect 0 0 18 12)(font "Arial" ))
		(text "A22" (rect 132 139 150 151)(font "Arial" ))
		(line (pt 168 144)(pt 152 144))
	)
	(port
		(pt 168 160)
		(output)
		(text "B22" (rect 0 0 18 12)(font "Arial" ))
		(text "B22" (rect 132 155 150 167)(font "Arial" ))
		(line (pt 168 160)(pt 152 160))
	)
	(port
		(pt 168 176)
		(output)
		(text "C22" (rect 0 0 20 12)(font "Arial" ))
		(text "C22" (rect 131 171 151 183)(font "Arial" ))
		(line (pt 168 176)(pt 152 176))
	)
	(port
		(pt 168 192)
		(output)
		(text "D22" (rect 0 0 20 12)(font "Arial" ))
		(text "D22" (rect 131 187 151 199)(font "Arial" ))
		(line (pt 168 192)(pt 152 192))
	)
	(port
		(pt 168 208)
		(output)
		(text "E2" (rect 0 0 12 12)(font "Arial" ))
		(text "E2" (rect 137 203 149 215)(font "Arial" ))
		(line (pt 168 208)(pt 152 208))
	)
	(port
		(pt 168 224)
		(output)
		(text "F2" (rect 0 0 12 12)(font "Arial" ))
		(text "F2" (rect 137 219 149 231)(font "Arial" ))
		(line (pt 168 224)(pt 152 224))
	)
	(port
		(pt 168 240)
		(output)
		(text "G2" (rect 0 0 14 12)(font "Arial" ))
		(text "G2" (rect 136 235 150 247)(font "Arial" ))
		(line (pt 168 240)(pt 152 240))
	)
	(port
		(pt 168 256)
		(output)
		(text "A33" (rect 0 0 18 12)(font "Arial" ))
		(text "A33" (rect 132 251 150 263)(font "Arial" ))
		(line (pt 168 256)(pt 152 256))
	)
	(port
		(pt 168 272)
		(output)
		(text "B33" (rect 0 0 18 12)(font "Arial" ))
		(text "B33" (rect 132 267 150 279)(font "Arial" ))
		(line (pt 168 272)(pt 152 272))
	)
	(port
		(pt 168 288)
		(output)
		(text "C33" (rect 0 0 20 12)(font "Arial" ))
		(text "C33" (rect 131 283 151 295)(font "Arial" ))
		(line (pt 168 288)(pt 152 288))
	)
	(port
		(pt 168 304)
		(output)
		(text "D33" (rect 0 0 20 12)(font "Arial" ))
		(text "D33" (rect 131 299 151 311)(font "Arial" ))
		(line (pt 168 304)(pt 152 304))
	)
	(port
		(pt 168 320)
		(output)
		(text "E33" (rect 0 0 18 12)(font "Arial" ))
		(text "E33" (rect 132 315 150 327)(font "Arial" ))
		(line (pt 168 320)(pt 152 320))
	)
	(port
		(pt 168 336)
		(output)
		(text "F33" (rect 0 0 18 12)(font "Arial" ))
		(text "F33" (rect 132 331 150 343)(font "Arial" ))
		(line (pt 168 336)(pt 152 336))
	)
	(port
		(pt 168 352)
		(output)
		(text "G33" (rect 0 0 20 12)(font "Arial" ))
		(text "G33" (rect 131 347 151 359)(font "Arial" ))
		(line (pt 168 352)(pt 152 352))
	)
	(port
		(pt 168 368)
		(output)
		(text "A44" (rect 0 0 18 12)(font "Arial" ))
		(text "A44" (rect 132 363 150 375)(font "Arial" ))
		(line (pt 168 368)(pt 152 368))
	)
	(port
		(pt 168 384)
		(output)
		(text "B44" (rect 0 0 18 12)(font "Arial" ))
		(text "B44" (rect 132 379 150 391)(font "Arial" ))
		(line (pt 168 384)(pt 152 384))
	)
	(port
		(pt 168 400)
		(output)
		(text "C44" (rect 0 0 20 12)(font "Arial" ))
		(text "C44" (rect 131 395 151 407)(font "Arial" ))
		(line (pt 168 400)(pt 152 400))
	)
	(port
		(pt 168 416)
		(output)
		(text "D44" (rect 0 0 20 12)(font "Arial" ))
		(text "D44" (rect 131 411 151 423)(font "Arial" ))
		(line (pt 168 416)(pt 152 416))
	)
	(port
		(pt 168 432)
		(output)
		(text "E44" (rect 0 0 18 12)(font "Arial" ))
		(text "E44" (rect 132 427 150 439)(font "Arial" ))
		(line (pt 168 432)(pt 152 432))
	)
	(port
		(pt 168 448)
		(output)
		(text "F44" (rect 0 0 18 12)(font "Arial" ))
		(text "F44" (rect 132 443 150 455)(font "Arial" ))
		(line (pt 168 448)(pt 152 448))
	)
	(port
		(pt 168 464)
		(output)
		(text "G44" (rect 0 0 20 12)(font "Arial" ))
		(text "G44" (rect 131 459 151 471)(font "Arial" ))
		(line (pt 168 464)(pt 152 464))
	)
	(port
		(pt 168 480)
		(output)
		(text "neg" (rect 0 0 17 12)(font "Arial" ))
		(text "neg" (rect 133 475 150 487)(font "Arial" ))
		(line (pt 168 480)(pt 152 480))
	)
	(port
		(pt 168 496)
		(output)
		(text "ponto" (rect 0 0 27 12)(font "Arial" ))
		(text "ponto" (rect 125 491 152 503)(font "Arial" ))
		(line (pt 168 496)(pt 152 496))
	)
	(drawing
		(rectangle (rect 16 16 152 512))
	)
)
(connector
	(pt 296 72)
	(pt 296 168)
	(bus)
)
(connector
	(pt 304 72)
	(pt 296 72)
	(bus)
)
(connector
	(pt 296 168)
	(pt 240 168)
	(bus)
)
(connector
	(pt 296 56)
	(pt 296 40)
)
(connector
	(pt 304 56)
	(pt 296 56)
)
(connector
	(pt 296 40)
	(pt 184 40)
)
